…
# Patterns of grades distribution



```r
#prep long data for plotting bar graph

canvrp_ugg_long<-canvrp_ugg_match%>%pivot_longer(cols=c(registrargpa_match,canvasgpa_match),names_to = "WhichSystem",values_to = "Grade2System")
#check
canvrp_ugg_long%>%group_by(WhichSystem,Grade2System)%>%count()
```

```
## # A tibble: 24 × 3
## # Groups:   WhichSystem, Grade2System [24]
##    WhichSystem     Grade2System     n
##    <chr>                  <dbl> <int>
##  1 canvasgpa_match          0     791
##  2 canvasgpa_match          0.7   136
##  3 canvasgpa_match          1     183
##  4 canvasgpa_match          1.3   231
##  5 canvasgpa_match          1.7   318
##  6 canvasgpa_match          2     548
##  7 canvasgpa_match          2.3   542
##  8 canvasgpa_match          2.7   816
##  9 canvasgpa_match          3    1409
## 10 canvasgpa_match          3.3  1497
## # … with 14 more rows
```
…
